{"results":[{"popularity":112.945,"vote_count":146,"video":false,"poster_path":"\/pIcV8XXIIvJCbtPoxF9qHMKdRr2.jpg","id":338967,"adult":false,"backdrop_path":"\/jCCdt0e8Xe9ttvevD4S3TSMNdH.jpg","original_language":"en","original_title":"Zombieland: Double Tap","genre_ids":[28,35,27],"title":"Zombieland: Double Tap","vote_average":7.5,"overview":"The group will face a new zombie threat as a new breed of zombie has developed. This new super-zombie type is faster, bigger, and stronger than the previous strain of zombies and harder to kill. These super-zombies have started grouping up into a horde going from city to city leaving a path of destruction behind them.","release_date":"2019-10-18"},{"popularity":62.936,"vote_count":77,"video":false,"poster_path":"\/uaXNjRkDdjfxfVuKHo25wkA6CiA.jpg","id":481084,"adult":false,"backdrop_path":"\/xS89uFXPKKwyWJgM7ljAmuAtDMh.jpg","original_language":"en","original_title":"The Addams Family","genre_ids":[16,35,14,27,10751],"title":"The Addams Family","vote_average":6.1,"overview":"The Addams family's lives begin to unravel when they face-off against a treacherous, greedy crafty reality-TV host while also preparing for their extended family to arrive for a major celebration.","release_date":"2019-10-11"},{"popularity":48.32,"vote_count":5,"video":false,"poster_path":"\/qCDPKUMX5xrxxQY8XhGVCKO3fks.jpg","id":599975,"adult":false,"backdrop_path":"\/hzL2P0tcU62A6JHPhprI8ZyBI73.jpg","original_language":"en","original_title":"Countdown","genre_ids":[27,53],"title":"Countdown","vote_average":5.3,"overview":"A young nurse downloads an app that tells her she only has three days to live. With time ticking away and a mysterious figure haunting her, she must find a way to save her life before time runs out.","release_date":"2019-10-25"},{"popularity":43.237,"vote_count":9347,"video":false,"poster_path":"\/9fgh3Ns1iRzlQNYuJyK0ARQZU7w.jpg","id":694,"adult":false,"backdrop_path":"\/h4DcDCOkQBENWBJZjNlPv3adQfM.jpg","original_language":"en","original_title":"The Shining","genre_ids":[27,53],"title":"The Shining","vote_average":8.2,"overview":"Jack Torrance accepts a caretaker job at the Overlook Hotel, where he, along with his wife Wendy and their son Danny, must live isolated from the rest of the world for the winter. But they aren't prepared for the madness that lurks within.","release_date":"1980-05-23"},{"popularity":37.181,"vote_count":129,"video":false,"poster_path":"\/llhj3xtNes2Ri4d9HqtleKo1CfL.jpg","id":431580,"adult":false,"backdrop_path":"\/tLCDKsXo6D84IVFanoElosSEKdp.jpg","original_language":"en","original_title":"Abominable","genre_ids":[12,16,35,10751],"title":"Abominable","vote_average":7,"overview":"A group of misfits encounter a young Yeti named Everest, and they set off to reunite the magical creature with his family on the mountain of his namesake.","release_date":"2019-09-27"},{"popularity":34.788,"vote_count":2,"video":false,"poster_path":"\/p69QzIBbN06aTYqRRiCOY1emNBh.jpg","id":501170,"adult":false,"backdrop_path":"\/4D4Ic9N4tnwaW4x241LGb1XOi7O.jpg","original_language":"en","original_title":"Doctor Sleep","genre_ids":[27],"title":"Doctor Sleep","vote_average":5,"overview":"A traumatized, alcoholic Dan Torrance meets Abra, a kid who also has the ability to \"shine.\" He tries to protect her from the True Knot, a cult who's goal is to feed off people like them in order to remain immortal.","release_date":"2019-11-08"},{"popularity":29.098,"vote_count":0,"video":false,"poster_path":"\/zHQFqG0e5p9Fwhv5v6XIP9fLtYk.jpg","id":330457,"adult":false,"backdrop_path":"\/qxSi1e8ht92grVUoApGfz9oCvJv.jpg","original_language":"en","original_title":"Frozen II","genre_ids":[12,16,35,14,10402,10751],"title":"Frozen II","vote_average":0,"overview":"Elsa, Anna, Kristoff and Olaf are going far in the forest to know the truth about an ancient mystery of their kingdom.","release_date":"2019-11-22"},{"popularity":16.66,"vote_count":0,"video":false,"poster_path":"\/ddV9cFT75AHxGmJy9QRtjuE1V35.jpg","id":522162,"adult":false,"backdrop_path":"\/1ZSjrBUHP2jm1QlQEyLGufL289q.jpg","original_language":"en","original_title":"Midway","genre_ids":[28,18,36,10752],"title":"Midway","vote_average":0,"overview":"The story of the soldiers and aviators who helped turn the tide of the Second World War during the iconic Battle of Midway in June 1942.","release_date":"2019-11-08"},{"popularity":16.405,"vote_count":15,"video":false,"poster_path":"\/6ApDtO7xaWAfPqfi2IARXIzj8QS.jpg","id":359724,"adult":false,"backdrop_path":"\/n3UanIvmnBlH531pykuzNs4LbH6.jpg","original_language":"en","original_title":"Ford v Ferrari","genre_ids":[28,18],"title":"Ford v Ferrari","vote_average":7.7,"overview":"American car designer Carroll Shelby and the British-born driver Ken Miles work together to battle corporate interference, the laws of physics, and their own personal demons to build a revolutionary race car for Ford Motor Company and take on the dominating race cars of Enzo Ferrari at the 24 Hours of Le Mans in France in 1966.","release_date":"2019-11-15"},{"popularity":15.858,"vote_count":420,"video":false,"poster_path":"\/rXv4tqt0UZsqyjCD3Kxjcs6OnHT.jpg","id":519010,"adult":false,"backdrop_path":"\/yCwcSCzcVKdI5Y9tA2T1s5Fr7jY.jpg","original_language":"es","original_title":"Dolor y gloria","genre_ids":[18],"title":"Pain and Glory","vote_average":7.6,"overview":"Salvador Mallo, a filmmaker in the twilight of his career, remembers his life: his mother, his lovers, the actors he worked with. The sixties in a small village in Valencia, the eighties in Madrid, the present, when he feels an immeasurable emptiness, facing his mortality, the incapability of continuing filming, the impossibility of separating creation from his own life. The need of narrating his past can be his salvation.","release_date":"2019-11-22"},{"popularity":16.569,"vote_count":0,"video":false,"poster_path":"\/36YiDLw3IWkQyhfJnCjG2GCNgg9.jpg","id":458897,"adult":false,"backdrop_path":"\/j9oM3c4D1qiVLmweBQm78Tm2grW.jpg","original_language":"en","original_title":"Charlie's Angels","genre_ids":[28,12,35],"title":"Charlie's Angels","vote_average":0,"overview":"When a systems engineer blows the whistle on a dangerous technology, Charlie's Angels from across the globe are called into action, putting their lives on the line to protect society.","release_date":"2019-11-15"},{"popularity":17.513,"id":504562,"video":false,"vote_count":8,"vote_average":0,"title":"Motherless Brooklyn","release_date":"2019-11-01","original_language":"en","original_title":"Motherless Brooklyn","genre_ids":[80,18],"backdrop_path":"\/visyTVDc7SmudN85WPCQIhMpyP3.jpg","adult":false,"overview":"Lionel Essrog, a private detective living with Tourette syndrome, ventures to solve the murder of his mentor and best friend — a mystery that carries him from the gin-soaked jazz clubs of Harlem to the slums of Brooklyn to the gilded halls of New York's power brokers.","poster_path":"\/2wm20cbkH1L8nA54Gtwfgz2hTqo.jpg"},{"popularity":12.226,"vote_count":1,"video":false,"poster_path":"\/8lSuziVF8TChwOczftjbxhpuu09.jpg","id":535292,"adult":false,"backdrop_path":"\/ejd3prSgWbgXNBY8Xqf9PucI28Q.jpg","original_language":"en","original_title":"21 Bridges","genre_ids":[28,80,18,53],"title":"21 Bridges","vote_average":0,"overview":"A disgraced NYPD detective after being thrust into a citywide manhunt for a cop killer, is given a shot at redemption.","release_date":"2019-11-22"},{"popularity":10.174,"vote_count":1,"video":false,"poster_path":"\/cgym0po39lRpAsfMHtRHSSr6ryY.jpg","id":579188,"adult":false,"backdrop_path":"\/6LbyjsGNZXT697ZL6CvTqJPeIDB.jpg","original_language":"ko","original_title":"가장 보통의 연애","genre_ids":[35,10749],"title":"Crazy Romance","vote_average":9,"overview":"Jae-hoon recently breaks up with his girlfriend and he still cannot give her up. Whenever he gets drunk, it has become a daily routine to call her and act out of drunkenness. On the other hand, Sun-young also decides to break up with his boyfriend. But she holds a grudge against him. For them, it seems that the beginning and the end of a love affair are both difficult. Can they overcome from the previous romance and start the new one?","release_date":"2019-10-02"},{"popularity":9.355,"vote_count":3,"video":false,"poster_path":"\/g4qeKNhbGAMbg2qwh06yhEbDd8p.jpg","id":586048,"adult":false,"backdrop_path":"\/gBF3mCeA9ThhFyJBsmzm4XJ1yTR.jpg","original_language":"ko","original_title":"82년생 김지영","genre_ids":[18],"title":"Kim Ji-young, Born 1982","vote_average":8.3,"overview":"KIM Ji-young, an ordinary woman in her 30s, suddenly shows signs of being inhabited by others such as her late mother and older sister, and the stories of the people connected to her.","release_date":"2019-10-23"},{"popularity":9.123,"vote_count":120,"video":false,"poster_path":"\/5bLZL1D5bLgwzvTaTATqapvFWfT.jpg","id":532938,"adult":false,"backdrop_path":"\/hRcSGSW0CZvvUqmDabGLYJygkgO.jpg","original_language":"fr","original_title":"Les Crevettes Pailletées","genre_ids":[35],"title":"The Shiny Shrimps","vote_average":7,"overview":"Matthias Le Goff, an Olympic champion at the end of his career, makes a homophobic statement on TV. His punishment: coach the Shiny Shrimps, a flamboyant and amateur gay water-polo team. They have only one thing in mind: to qualify for the Gay Games in Croatia where the hottest international LGBT athletes compete. It's the start of a bumpy and joyful ride - Faster, Higher, Stronger.","release_date":"2019-05-08"},{"popularity":11.67,"vote_count":3,"video":false,"poster_path":"\/8tfYgXxJyLQcXvz22zqqhX0ezbc.jpg","id":575813,"adult":false,"backdrop_path":"\/iNbekyXaKSdI5J5fAELuPPGXxn0.jpg","original_language":"zh","original_title":"少年的你","genre_ids":[18],"title":"Better Days","vote_average":8.5,"overview":"Nian is trying to get into shape for the state Gaokao exam. Her chances of getting a spot at university depend on her score and the constant bullying of her classmates is not helping much. Bei’s world is the street, with all its dark corners. A night-time encounter brings the shy schoolgirl together with the street-savvy trickster, Bei. When Nian’s school nemesis turns up dead, the new allies come under suspicion.","release_date":"2019-10-25"},{"popularity":6.988,"vote_count":63,"video":false,"poster_path":"\/ve7xmUK167YZloN8LnSyhKmmNgE.jpg","id":345934,"adult":false,"backdrop_path":"\/fhYWAKXeEbhD20S3sp4RFaxiOG9.jpg","original_language":"en","original_title":"Air Strike","genre_ids":[28,12,18,10752],"title":"Air Strike","vote_average":3.9,"overview":"An American pilot is sent to a Chinese province to teach a crew of would-be pilots how to fly war planes against the Japanese during World War II.","release_date":"2018-10-26"},{"popularity":2.944,"vote_count":0,"video":false,"poster_path":"\/3s0Lwyy3S5iTxOaGFozs4Q6w2KB.jpg","id":572703,"adult":false,"backdrop_path":"\/5VuOfqtXiX7ubqyAwaM7CpKYvav.jpg","original_language":"ko","original_title":"두번할까요","genre_ids":[35,10749],"title":"Love, Again","vote_average":0,"overview":"A romantic comedy that tells its story through funny episodes of two men and a woman.","release_date":"2019-10-17"},{"popularity":4.924,"vote_count":16,"video":false,"poster_path":"\/ql5rLSQn0nw6OL1SAtiQNQrVibk.jpg","id":602971,"adult":false,"backdrop_path":"\/difeQ0POJwjpnt7J6KpneN3MuyF.jpg","original_language":"fr","original_title":"Made In China","genre_ids":[35,18],"title":"Made In China","vote_average":5.9,"overview":"","release_date":"2019-06-26"}],"page":1,"total_results":25,"dates":{"maximum":"2019-11-23","minimum":"2019-10-27"},"total_pages":2}