{
  "results": [
    {
      "popularity": 602.723,
      "vote_count": 2742,
      "video": false,
      "poster_path": "\/udDclJoHjfjb8Ekgsd4FDteOkCU.jpg",
      "id": 475557,
      "adult": false,
      "backdrop_path": "\/n6bUvigpRFqSwmPp1m2YADdbRBc.jpg",
      "original_language": "en",
      "original_title": "Joker",
      "genre_ids": [
        80,
        18,
        53
      ],
      "title": "Joker",
      "vote_average": 8.7,
      "overview": "During the 1980s, a failed stand-up comedian is driven insane and turns to a life of crime and chaos in Gotham City while becoming an infamous psychopathic crime figure.",
      "release_date": "2019-10-04"
    },
    {
      "popularity": 182.507,
      "vote_count": 1539,
      "video": false,
      "poster_path": "\/zfE0R94v1E8cuKAerbskfD3VfUt.jpg",
      "id": 474350,
      "adult": false,
      "backdrop_path": "\/8moTOzunF7p40oR5XhlDvJckOSW.jpg",
      "original_language": "en",
      "original_title": "It Chapter Two",
      "genre_ids": [
        27
      ],
      "title": "It Chapter Two",
      "vote_average": 7,
      "overview": "27 years after overcoming the malevolent supernatural entity Pennywise, the former members of the Losers' Club, who have grown up and moved away from Derry, are brought back together by a devastating phone call.",
      "release_date": "2019-09-06"
    },
    {
      "popularity": 186.811,
      "vote_count": 200,
      "video": false,
      "poster_path": "\/lRyesi2S9u8gIwcxeuPAFNYAYTy.jpg",
      "id": 453405,
      "adult": false,
      "backdrop_path": "\/c3F4P2oauA7IQmy4hM0OmRt2W7d.jpg",
      "original_language": "en",
      "original_title": "Gemini Man",
      "genre_ids": [
        28,
        53
      ],
      "title": "Gemini Man",
      "vote_average": 6,
      "overview": "Henry Brogen, an aging assassin tries to get out of the business but finds himself in the ultimate battle: fighting his own clone who is 25 years younger than him and at the peak of his abilities.",
      "release_date": "2019-10-11"
    },
    {
      "popularity": 85.951,
      "vote_count": 442,
      "video": false,
      "poster_path": "\/kTQ3J8oTTKofAVLYnds2cHUz9KO.jpg",
      "id": 522938,
      "adult": false,
      "backdrop_path": "\/spYx9XQFODuqEVoPpvaJI1ksAVt.jpg",
      "original_language": "en",
      "original_title": "Rambo: Last Blood",
      "genre_ids": [
        28,
        53
      ],
      "title": "Rambo: Last Blood",
      "vote_average": 6,
      "overview": "When John Rambo's niece travels to Mexico to find the father that abandoned her and her mother, she finds herself in the grasps of Calle Mexican sex traffickers. When she doesn't return home as expected, John learns she's crossed into Mexico and sets out to get her back and make them pay.",
      "release_date": "2019-09-20"
    },
    {
      "popularity": 63.871,
      "vote_count": 804,
      "video": false,
      "poster_path": "\/lNnomQxXpRP9mgUwMuSZhA8LXfA.jpg",
      "id": 419704,
      "adult": false,
      "backdrop_path": "\/p3TCqUDoVsrIm8fHK9KOTfWnDjZ.jpg",
      "original_language": "en",
      "original_title": "Ad Astra",
      "genre_ids": [
        12,
        18,
        878
      ],
      "title": "Ad Astra",
      "vote_average": 6.2,
      "overview": "An astronaut travels to the outer edges of the solar system to find his father and unravel a mystery that threatens the survival of our planet. He uncovers secrets which challenge the nature of human existence and our place in the cosmos.",
      "release_date": "2019-09-20"
    },
    {
      "popularity": 52.383,
      "vote_count": 28,
      "video": false,
      "poster_path": "\/4E2lyUGLEr3yH4q6kJxPkQUhX7n.jpg",
      "id": 568012,
      "adult": false,
      "backdrop_path": "\/iGnCzXEx0cFlUbpyAMeHwHWhPhx.jpg",
      "original_language": "ja",
      "original_title": "ワンピーススタンピード",
      "genre_ids": [
        28,
        12,
        16
      ],
      "title": "One Piece: Stampede",
      "vote_average": 8.2,
      "overview": "One Piece: Stampede is a stand-alone film that celebrates the anime's 20th Anniversary and takes place outside the canon of the \"One Piece\" TV series. Monkey D. Luffy and his Straw Hat pirate crew are invited to a massive Pirate Festival that brings many of the most iconic characters from throughout the franchise to participate in competition with the Straw Hats to find Roger's treasure. It also pits the Straw Hats against a new enemy named Bullet, a former member of Roger's crew.",
      "release_date": "2019-10-24"
    },
    {
      "popularity": 56.569,
      "vote_count": 283,
      "video": false,
      "poster_path": "\/zBhv8rsLOfpFW2M5b6wW78Uoojs.jpg",
      "id": 540901,
      "adult": false,
      "backdrop_path": "\/5GynP6w2OQWSbKnCLHrBIriF4Cw.jpg",
      "original_language": "en",
      "original_title": "Hustlers",
      "genre_ids": [
        35,
        80,
        18
      ],
      "title": "Hustlers",
      "vote_average": 6.1,
      "overview": "A crew of savvy former strip club employees band together to turn the tables on their Wall Street clients.",
      "release_date": "2019-09-13"
    },
    {
      "popularity": 55.524,
      "vote_count": 152,
      "video": false,
      "poster_path": "\/ebe8hJRCwdflNQbUjRrfmqtUiNi.jpg",
      "id": 454640,
      "adult": false,
      "backdrop_path": "\/k7sE3loFwuU2mqf7FbZBeE3rjBa.jpg",
      "original_language": "en",
      "original_title": "The Angry Birds Movie 2",
      "genre_ids": [
        28,
        12,
        16,
        35,
        10751
      ],
      "title": "The Angry Birds Movie 2",
      "vote_average": 6.2,
      "overview": "Red, Chuck, Bomb and the rest of their feathered friends are surprised when a green pig suggests that they put aside their differences and unite to fight a common threat. Aggressive birds from an island covered in ice are planning to use an elaborate weapon to destroy the fowl and swine.",
      "release_date": "2019-08-14"
    },
    {
      "popularity": 44.88,
      "vote_count": 775,
      "video": false,
      "poster_path": "\/rXsh4MI6uyVgZBSSzXCfitJnVPy.jpg",
      "id": 530385,
      "adult": false,
      "backdrop_path": "\/g6GtOfXtzDpY73ef7wludoorTti.jpg",
      "original_language": "en",
      "original_title": "Midsommar",
      "genre_ids": [
        18,
        27,
        9648,
        53
      ],
      "title": "Midsommar",
      "vote_average": 7.2,
      "overview": "A young couple travels to Sweden to visit their friend’s rural hometown and attend its mid-summer festival. What begins as an idyllic retreat quickly descends into an increasingly violent and bizarre competition at the hands of a pagan cult.",
      "release_date": "2019-07-03"
    },
    {
      "popularity": 23.927,
      "vote_count": 247,
      "video": false,
      "poster_path": "\/jIthqo2tQmW8TFN1fYpF8FmVL0o.jpg",
      "id": 521777,
      "adult": false,
      "backdrop_path": "\/6Xsz9KHQmCcIcj3CoWQq5eLtVoT.jpg",
      "original_language": "en",
      "original_title": "Good Boys",
      "genre_ids": [
        35
      ],
      "title": "Good Boys",
      "vote_average": 6.5,
      "overview": "A group of young boys on the cusp of becoming teenagers embark on an epic quest to fix their broken drone before their parents get home.",
      "release_date": "2019-08-16"
    },
    {
      "popularity": 19.165,
      "vote_count": 176,
      "video": false,
      "poster_path": "\/xvYCZ740XvngXK0FNeSNVTJJJ5v.jpg",
      "id": 499701,
      "adult": false,
      "backdrop_path": "\/n9lOuPxdnb6YceTjePhOBAJggOm.jpg",
      "original_language": "en",
      "original_title": "Dora and the Lost City of Gold",
      "genre_ids": [
        12,
        35,
        10751
      ],
      "title": "Dora and the Lost City of Gold",
      "vote_average": 6.2,
      "overview": "Dora, a girl who has spent most of her life exploring the jungle with her parents, now must navigate her most dangerous adventure yet: high school. Always the explorer, Dora quickly finds herself leading Boots (her best friend, a monkey), Diego, and a rag tag group of teens on an adventure to save her parents and solve the impossible mystery behind a lost Inca civilization.",
      "release_date": "2019-08-09"
    },
    {
      "popularity": 16.224,
      "vote_count": 9,
      "video": false,
      "poster_path": "\/pbGveUC8mk0QRkdXpERPLbMFnrg.jpg",
      "id": 466081,
      "adult": false,
      "backdrop_path": "\/xvmbs8vzXkBE0bvcXIBcMiNQMmL.jpg",
      "original_language": "en",
      "original_title": "The Informer",
      "genre_ids": [
        80,
        18
      ],
      "title": "The Informer",
      "vote_average": 6.6,
      "overview": "An ex-convict working undercover intentionally gets himself incarcerated again in order to infiltrate the mob at a maximum security prison. Based on the book \"Three Seconds\" by Anders Roslund and Börge Hellström.",
      "release_date": "2020-01-10"
    },
    {
      "popularity": 16.982,
      "vote_count": 53,
      "video": false,
      "poster_path": "\/uNWk5HZfVBHpARcV1z9cwUAbtpF.jpg",
      "id": 537739,
      "adult": false,
      "backdrop_path": "\/sQBVmI8jra82O6dVswBQgmNI0lq.jpg",
      "original_language": "en",
      "original_title": "Can You Keep a Secret?",
      "genre_ids": [
        35,
        10749
      ],
      "title": "Can You Keep a Secret?",
      "vote_average": 6.1,
      "overview": "Emma Corrigan, a girl with a few secrets on a turbulent plane ride, thinks she’s about to die, Emma spills them all to the handsome stranger sitting next to her. At least, she thought he was a stranger. But then, her company’s young and elusive CEO, arrives at the office. It’s him. And he knows every single humiliating detail about Emma.",
      "release_date": "2019-09-13"
    },
    {
      "popularity": 9.899,
      "vote_count": 5,
      "video": false,
      "poster_path": "\/rqHzHops7SudBKvxjbB15ZnUABp.jpg",
      "id": 585026,
      "adult": false,
      "backdrop_path": "\/egF1yQttHQLbZFi2MpQalRfxTji.jpg",
      "original_language": "id",
      "original_title": "Dua Garis Biru",
      "genre_ids": [
        18
      ],
      "title": "Two Blue Stripes",
      "vote_average": 7.8,
      "overview": "Bima and Dara are lovers who are still in high school. At the age of 17, they were determined to copulate outside of marriage. Dara was pregnant. Both are then confronted with a life that is unimaginable for children of their age, life as parents.",
      "release_date": "2019-07-11"
    },
    {
      "popularity": 14.028,
      "vote_count": 75,
      "video": false,
      "poster_path": "\/g4z7mDmJmx23vsVg6XNWcnXb6gc.jpg",
      "id": 480105,
      "adult": false,
      "backdrop_path": "\/3uG3aOhEzFCjcQulsJQiAzLSrw8.jpg",
      "original_language": "en",
      "original_title": "47 Meters Down: Uncaged",
      "genre_ids": [
        12,
        27,
        53
      ],
      "title": "47 Meters Down: Uncaged",
      "vote_average": 5.6,
      "overview": "A group of backpackers diving in a ruined underwater city discover that they have stumbled into the territory of the ocean's deadliest shark species.",
      "release_date": "2019-08-16"
    },
    {
      "popularity": 11.371,
      "id": 472674,
      "video": false,
      "vote_count": 42,
      "vote_average": 6.8,
      "title": "The Goldfinch",
      "release_date": "2019-09-13",
      "original_language": "en",
      "original_title": "The Goldfinch",
      "genre_ids": [
        18
      ],
      "backdrop_path": "\/lXSJETt0cbiemixfHuBpopAg8pT.jpg",
      "adult": false,
      "overview": "A boy in New York is taken in by a wealthy family after his mother is killed in a bombing at the Metropolitan Museum of Art. In a rush of panic, he steals 'The Goldfinch', a painting that eventually draws him into a world of crime.",
      "poster_path": "\/8NwONmcJmPr0w9A176JorJ3tbJx.jpg"
    },
    {
      "popularity": 11.271,
      "vote_count": 2,
      "video": false,
      "poster_path": "\/wcr8JInmUhkYyn60uEA42UKuVDd.jpg",
      "id": 578906,
      "adult": false,
      "backdrop_path": "\/jdffBSam3cgglm5bUaPPtSfl7bn.jpg",
      "original_language": "zh",
      "original_title": "诛仙Ⅰ",
      "genre_ids": [
        18,
        14,
        10749
      ],
      "title": "Jade Dynasty",
      "vote_average": 9,
      "overview": "Upcoming wuxia film based on the novel of the same name.",
      "release_date": "2019-09-13"
    },
    {
      "popularity": 15.102,
      "vote_count": 14,
      "video": false,
      "poster_path": "\/wCds1E0y9dNWPYFl1CN0UuFX05V.jpg",
      "id": 615453,
      "adult": false,
      "backdrop_path": "\/58W0GbpzJlOC0Mce9R2N4ZSG97w.jpg",
      "original_language": "zh",
      "original_title": "哪吒之魔童降世",
      "genre_ids": [
        16,
        35,
        14
      ],
      "title": "Ne Zha",
      "vote_average": 7.9,
      "overview": "The Primus extracts a Mixed Yuan Bead into a Spirit Seed and a Demon Pill. The Spirit Seed can be reincarnated as a human to help King Zhou establish a new dynasty, whereas the Demon Pill will create a devil threatening humanity. Ne Zha is the one who is destined to be the hero, but instead he becomes a devil incarnate, because the Spirit Seed and a Demon Pill are switched.",
      "release_date": "2019-07-26"
    },
    {
      "popularity": 13.11,
      "vote_count": 36,
      "video": false,
      "poster_path": "\/w0fOppZoVfjEgHyMfTRm3HwdRXa.jpg",
      "id": 568160,
      "adult": false,
      "backdrop_path": "\/ize3ZieqSy0TCWljmVoEiy8fSFS.jpg",
      "original_language": "ja",
      "original_title": "天気の子",
      "genre_ids": [
        16,
        14,
        10749
      ],
      "title": "Weathering with You",
      "vote_average": 7.5,
      "overview": "Hodaka, a high school boy who moves from his isolated island home to the city of Tokyo, who immediately becomes broke! After finally finding work at a shady occult magazine, the sky rains every day until amidst the hustle and bustle of the big city, he meets a young woman called Hina. She lives a cheerful life with her younger brother, but also has a certain power: to stop the rain and clear the sky.",
      "release_date": "2019-07-19"
    },
    {
      "popularity": 5.56,
      "vote_count": 3,
      "video": false,
      "poster_path": "\/iQlItCCnVFV5xgJfSzh3kpnXsFe.jpg",
      "id": 589712,
      "adult": false,
      "backdrop_path": "\/hqthSemehAJxf55Gp4YZwZnBnDw.jpg",
      "original_language": "zh",
      "original_title": "中国机长",
      "genre_ids": [
        99,
        18
      ],
      "title": "The Captain",
      "vote_average": 6,
      "overview": "Based on the true story of a pilot who had to ensure the safety of 128 passengers and crew members on the plane when its windshield became damaged mid-flight. The incident is regarded as one of the miracles in aviation history.",
      "release_date": "2019-09-30"
    }
  ],
  "page": 1,
  "total_results": 47,
  "dates": {
    "maximum": "2019-10-13",
    "minimum": "2019-08-26"
  },
  "total_pages": 3
}